EESchema Schematic File Version 4
EELAYER 30 0
EELAYER END
$Descr A3 16535 11693
encoding utf-8
Sheet 1 1
Title "Basketball Robot (Team Shaq)"
Date "2022-01-24"
Rev "V1.0"
Comp "University of Tartu"
Comment1 "Project in Competitive Robotics "
Comment2 "PiCR LOTI.05.023"
Comment3 ""
Comment4 ""
$EndDescr
$Comp
L power:GND #PWR042
U 1 1 618566BA
P 9500 4150
F 0 "#PWR042" H 9500 3900 50  0001 C CNN
F 1 "GND" H 9500 4000 50  0000 C CNN
F 2 "" H 9500 4150 50  0001 C CNN
F 3 "" H 9500 4150 50  0001 C CNN
	1    9500 4150
	1    0    0    -1  
$EndComp
$Comp
L Device:C C25
U 1 1 6185B6D8
P 9500 4000
F 0 "C25" H 9525 4100 50  0000 L CNN
F 1 "100nF" H 9525 3900 50  0000 L CNN
F 2 "Capacitor_SMD:C_0603_1608Metric" H 9538 3850 50  0001 C CNN
F 3 "~" H 9500 4000 50  0001 C CNN
	1    9500 4000
	-1   0    0    1   
$EndComp
$Comp
L power:GND #PWR055
U 1 1 619F43B8
P 12150 1900
F 0 "#PWR055" H 12150 1650 50  0001 C CNN
F 1 "GND" H 12150 1750 50  0000 C CNN
F 2 "" H 12150 1900 50  0001 C CNN
F 3 "" H 12150 1900 50  0001 C CNN
	1    12150 1900
	1    0    0    -1  
$EndComp
$Comp
L power:+5V #PWR066
U 1 1 61C27640
P 15550 1350
F 0 "#PWR066" H 15550 1200 50  0001 C CNN
F 1 "+5V" H 15550 1490 50  0000 C CNN
F 2 "" H 15550 1350 50  0001 C CNN
F 3 "" H 15550 1350 50  0001 C CNN
	1    15550 1350
	1    0    0    -1  
$EndComp
$Comp
L power:+3V3 #PWR054
U 1 1 61C28240
P 12150 1300
F 0 "#PWR054" H 12150 1150 50  0001 C CNN
F 1 "+3V3" H 12150 1440 50  0000 C CNN
F 2 "" H 12150 1300 50  0001 C CNN
F 3 "" H 12150 1300 50  0001 C CNN
	1    12150 1300
	1    0    0    -1  
$EndComp
$Comp
L Device:C C29
U 1 1 61C2D0B2
P 15550 1700
F 0 "C29" H 15575 1800 50  0000 L CNN
F 1 "0.1μF" H 15575 1600 50  0000 L CNN
F 2 "Capacitor_SMD:C_0603_1608Metric" H 15588 1550 50  0001 C CNN
F 3 "~" H 15550 1700 50  0001 C CNN
	1    15550 1700
	1    0    0    -1  
$EndComp
$Comp
L Device:C C27
U 1 1 61C30242
P 12150 1600
F 0 "C27" H 12175 1700 50  0000 L CNN
F 1 "0.1μF" H 12175 1500 50  0000 L CNN
F 2 "Capacitor_SMD:C_0603_1608Metric" H 12188 1450 50  0001 C CNN
F 3 "~" H 12150 1600 50  0001 C CNN
	1    12150 1600
	-1   0    0    1   
$EndComp
$Comp
L power:GND #PWR059
U 1 1 61CAA212
P 13000 2250
F 0 "#PWR059" H 13000 2000 50  0001 C CNN
F 1 "GND" H 13000 2100 50  0000 C CNN
F 2 "" H 13000 2250 50  0001 C CNN
F 3 "" H 13000 2250 50  0001 C CNN
	1    13000 2250
	1    0    0    -1  
$EndComp
$Comp
L power:+3V3 #PWR041
U 1 1 61855DDC
P 9500 3750
F 0 "#PWR041" H 9500 3600 50  0001 C CNN
F 1 "+3V3" H 9500 3890 50  0000 C CNN
F 2 "" H 9500 3750 50  0001 C CNN
F 3 "" H 9500 3750 50  0001 C CNN
	1    9500 3750
	1    0    0    -1  
$EndComp
NoConn ~ 6100 1750
NoConn ~ 4100 1650
NoConn ~ 12600 3900
NoConn ~ 12600 4400
NoConn ~ 12600 4500
NoConn ~ 10000 5000
NoConn ~ 10000 4000
NoConn ~ 14650 2050
NoConn ~ 13050 2050
$Comp
L components_main_board-rescue:STM32G441KBT3-STM32G441KB U5
U 1 1 617FFDF6
P 10000 3800
F 0 "U5" H 11300 4200 60  0000 C CNN
F 1 "STM32G441KB" H 11300 4100 60  0000 C CNN
F 2 "STM32G441KB:STM32G441KBT3" H 11300 4040 60  0001 C CNN
F 3 "" H 10000 3800 60  0000 C CNN
	1    10000 3800
	1    0    0    -1  
$EndComp
$Comp
L power:GND #PWR044
U 1 1 6345E72C
P 9950 5400
F 0 "#PWR044" H 9950 5150 50  0001 C CNN
F 1 "GND" H 9950 5250 50  0000 C CNN
F 2 "" H 9950 5400 50  0001 C CNN
F 3 "" H 9950 5400 50  0001 C CNN
	1    9950 5400
	1    0    0    -1  
$EndComp
$Comp
L power:GND #PWR062
U 1 1 63480124
P 13500 3850
F 0 "#PWR062" H 13500 3600 50  0001 C CNN
F 1 "GND" H 13500 3700 50  0000 C CNN
F 2 "" H 13500 3850 50  0001 C CNN
F 3 "" H 13500 3850 50  0001 C CNN
	1    13500 3850
	1    0    0    -1  
$EndComp
$Comp
L Switch:SW_Push SW1
U 1 1 61E9A33E
P 8300 4050
F 0 "SW1" H 8350 4150 50  0000 C CNN
F 1 "SW_Push" H 8300 3990 50  0001 C CNN
F 2 "Button_Switch_SMD:SW_Push_1P1T_NO_6x6mm_H9.5mm" H 8300 4250 50  0001 C CNN
F 3 "~" H 8300 4250 50  0001 C CNN
	1    8300 4050
	0    1    1    0   
$EndComp
Wire Wire Line
	8300 3850 8300 3800
Wire Wire Line
	8300 3800 8750 3800
Wire Wire Line
	8300 4400 8300 4300
Wire Wire Line
	8750 3800 8750 3900
$Comp
L power:GND #PWR034
U 1 1 61E3A3AF
P 8300 4400
F 0 "#PWR034" H 8300 4150 50  0001 C CNN
F 1 "GND" H 8300 4250 50  0000 C CNN
F 2 "" H 8300 4400 50  0001 C CNN
F 3 "" H 8300 4400 50  0001 C CNN
	1    8300 4400
	1    0    0    -1  
$EndComp
$Comp
L Device:C C24
U 1 1 61E3A3A1
P 8750 4050
F 0 "C24" H 8775 4150 50  0000 L CNN
F 1 "0.1μF" H 8775 3950 50  0000 L CNN
F 2 "Capacitor_SMD:C_0603_1608Metric" H 8788 3900 50  0001 C CNN
F 3 "~" H 8750 4050 50  0001 C CNN
	1    8750 4050
	1    0    0    -1  
$EndComp
Connection ~ 7050 7950
Wire Wire Line
	6900 7950 7050 7950
Wire Wire Line
	7050 8050 7050 7950
NoConn ~ 6600 9450
NoConn ~ 6900 7850
Wire Wire Line
	4900 9150 4900 9200
Connection ~ 4900 9150
Wire Wire Line
	5250 9150 4900 9150
Wire Wire Line
	5250 9450 5250 9150
Wire Wire Line
	5300 9450 5250 9450
Wire Wire Line
	4900 9000 4900 9150
$Comp
L components_main_board-rescue:NCV8730ASN500T1G-NCV8730ASN500T1G IC1
U 1 1 618021BA
P 5300 9450
F 0 "IC1" H 6450 9750 50  0000 C CNN
F 1 "NCV8730ASN500T1G" H 6450 9650 50  0000 C CNN
F 2 "NCV8730ASN500T1G:SOT95P275X110-5N" H 6450 9550 50  0001 L CNN
F 3 "" H 6450 9450 50  0001 L CNN
F 4 "LDO Voltage Regulators NCV8730 TSOP-5 5V0" H 6450 9350 50  0001 L CNN "Description"
F 5 "1.1" H 6450 9250 50  0001 L CNN "Height"
F 6 "ON Semiconductor" H 6450 9150 50  0001 L CNN "Manufacturer_Name"
F 7 "NCV8730ASN500T1G" H 6450 9050 50  0001 L CNN "Manufacturer_Part_Number"
F 8 "863-NCV8730ASN500T1G" H 6450 8950 50  0001 L CNN "Mouser Part Number"
F 9 "https://www.mouser.co.uk/ProductDetail/ON-Semiconductor/NCV8730ASN500T1G?qs=GedFDFLaBXHk1ABQHGw1TA%3D%3D" H 6450 8850 50  0001 L CNN "Mouser Price/Stock"
F 10 "NCV8730ASN500T1G" H 6450 8750 50  0001 L CNN "Arrow Part Number"
F 11 "https://www.arrow.com/en/products/ncv8730asn500t1g/on-semiconductor" H 6450 8650 50  0001 L CNN "Arrow Price/Stock"
	1    5300 9450
	1    0    0    -1  
$EndComp
Wire Wire Line
	4900 9550 5300 9550
$Comp
L power:GND #PWR021
U 1 1 619F6329
P 4950 8250
F 0 "#PWR021" H 4950 8000 50  0001 C CNN
F 1 "GND" H 4950 8100 50  0000 C CNN
F 2 "" H 4950 8250 50  0001 C CNN
F 3 "" H 4950 8250 50  0001 C CNN
	1    4950 8250
	1    0    0    -1  
$EndComp
$Comp
L Device:C C20
U 1 1 619DA224
P 4950 8100
F 0 "C20" H 4975 8200 50  0000 L CNN
F 1 "1μF" H 4975 8000 50  0000 L CNN
F 2 "Capacitor_SMD:C_0603_1608Metric" H 4988 7950 50  0001 C CNN
F 3 "~" H 4950 8100 50  0001 C CNN
	1    4950 8100
	1    0    0    -1  
$EndComp
$Comp
L components_main_board-rescue:NCP164CSN330T1G-NCP164CSN330T1G IC2
U 1 1 61801139
P 5700 7850
F 0 "IC2" H 6750 8150 50  0000 C CNN
F 1 "NCP164CSN330T1G" H 6750 8050 50  0000 C CNN
F 2 "NCP164CSN330T1G:SOP95P275X110-5N" H 6750 7950 50  0001 L CNN
F 3 "" H 6750 7850 50  0001 L CNN
F 4 "LDO Regulator Pos 3.3V 0.3A 5-Pin TSOP T/R" H 6750 7750 50  0001 L CNN "Description"
F 5 "1.1" H 6750 7650 50  0001 L CNN "Height"
F 6 "ON Semiconductor" H 6750 7550 50  0001 L CNN "Manufacturer_Name"
F 7 "NCP164CSN330T1G" H 6750 7450 50  0001 L CNN "Manufacturer_Part_Number"
F 8 "863-NCP164CSN330T1G" H 6750 7350 50  0001 L CNN "Mouser Part Number"
F 9 "https://www.mouser.co.uk/ProductDetail/onsemi/NCP164CSN330T1G?qs=xZ%2FP%252Ba9zWqbi%2FAyy5UtoRw%3D%3D" H 6750 7250 50  0001 L CNN "Mouser Price/Stock"
F 10 "NCP164CSN330T1G" H 6750 7150 50  0001 L CNN "Arrow Part Number"
F 11 "https://www.arrow.com/en/products/ncp164csn330t1g/on-semiconductor?region=nac" H 6750 7050 50  0001 L CNN "Arrow Price/Stock"
	1    5700 7850
	1    0    0    -1  
$EndComp
Connection ~ 4900 9550
$Comp
L Device:C C19
U 1 1 61ABDD32
P 4900 9350
F 0 "C19" H 4925 9450 50  0000 L CNN
F 1 "1μF" H 4925 9250 50  0000 L CNN
F 2 "Capacitor_SMD:C_0603_1608Metric" H 4938 9200 50  0001 C CNN
F 3 "~" H 4900 9350 50  0001 C CNN
	1    4900 9350
	1    0    0    -1  
$EndComp
Wire Wire Line
	4900 9500 4900 9550
$Comp
L power:+15V #PWR018
U 1 1 61B600A8
P 4900 9000
F 0 "#PWR018" H 4900 8850 50  0001 C CNN
F 1 "+15V" H 4900 9140 50  0000 C CNN
F 2 "" H 4900 9000 50  0001 C CNN
F 3 "" H 4900 9000 50  0001 C CNN
	1    4900 9000
	1    0    0    -1  
$EndComp
Wire Wire Line
	6800 9300 6800 9550
Wire Wire Line
	6800 9550 6800 9650
Connection ~ 6800 9550
Wire Wire Line
	6600 9550 6800 9550
$Comp
L power:+5V #PWR026
U 1 1 61AC68AD
P 6800 9300
F 0 "#PWR026" H 6800 9150 50  0001 C CNN
F 1 "+5V" H 6800 9440 50  0000 C CNN
F 2 "" H 6800 9300 50  0001 C CNN
F 3 "" H 6800 9300 50  0001 C CNN
	1    6800 9300
	1    0    0    -1  
$EndComp
$Comp
L power:GND #PWR029
U 1 1 619F53FE
P 7050 8350
F 0 "#PWR029" H 7050 8100 50  0001 C CNN
F 1 "GND" H 7050 8200 50  0000 C CNN
F 2 "" H 7050 8350 50  0001 C CNN
F 3 "" H 7050 8350 50  0001 C CNN
	1    7050 8350
	1    0    0    -1  
$EndComp
$Comp
L components_main_board-rescue:CM1223-02SO-CM1223-02SO U6
U 1 1 61D03315
P 10350 6750
F 0 "U6" H 11150 7150 60  0000 C CNN
F 1 "CM1223" H 11150 7050 60  0000 C CNN
F 2 "CM1223-02SO:On_Semiconductor-CM1223-02SO-Level_A" H 11150 6990 60  0001 C CNN
F 3 "" H 10350 6750 60  0000 C CNN
	1    10350 6750
	1    0    0    -1  
$EndComp
Wire Wire Line
	12000 6650 12000 6750
Wire Wire Line
	12000 6750 11950 6750
Wire Wire Line
	10300 6850 10300 6900
Wire Wire Line
	10350 6850 10300 6850
$Comp
L power:GND #PWR045
U 1 1 620CE71C
P 10300 6900
F 0 "#PWR045" H 10300 6650 50  0001 C CNN
F 1 "GND" H 10300 6750 50  0000 C CNN
F 2 "" H 10300 6900 50  0001 C CNN
F 3 "" H 10300 6900 50  0001 C CNN
	1    10300 6900
	1    0    0    -1  
$EndComp
NoConn ~ 10350 6750
$Comp
L power:GND #PWR057
U 1 1 61D20034
P 12450 7100
F 0 "#PWR057" H 12450 6850 50  0001 C CNN
F 1 "GND" H 12450 6950 50  0000 C CNN
F 2 "" H 12450 7100 50  0001 C CNN
F 3 "" H 12450 7100 50  0001 C CNN
	1    12450 7100
	1    0    0    -1  
$EndComp
$Comp
L components_main_board-rescue:10118193-0001LF-Amphenol_10118193-0001LF USB1
U 1 1 618EBA15
P 13150 6850
F 0 "USB1" H 12950 7280 50  0000 L CNN
F 1 "10118193-0001LF-Amphenol_10118193-0001LF" H 12950 6350 50  0001 L CNN
F 2 "USBCon:FCI_10118193-0001LF" H 13150 6850 50  0001 L BNN
F 3 "" H 13150 6850 50  0001 L BNN
F 4 "None" H 13150 6850 50  0001 L BNN "PRICE"
F 5 "10118193-0001LF" H 13150 6850 50  0001 L BNN "MP"
F 6 "None" H 13150 6850 50  0001 L BNN "PACKAGE"
F 7 "Unavailable" H 13150 6850 50  0001 L BNN "AVAILABILITY"
F 8 "Amphenol FCI" H 13150 6850 50  0001 L BNN "MF"
F 9 "Single Port 5 Contact Shielded SMT MICRO USB B-Type Receptacle" H 13150 6850 50  0001 L BNN "DESCRIPTION"
	1    13150 6850
	1    0    0    -1  
$EndComp
$Comp
L power:+3V3 #PWR046
U 1 1 6305BF45
P 10450 8450
F 0 "#PWR046" H 10450 8300 50  0001 C CNN
F 1 "+3V3" H 10450 8590 50  0000 C CNN
F 2 "" H 10450 8450 50  0001 C CNN
F 3 "" H 10450 8450 50  0001 C CNN
	1    10450 8450
	1    0    0    -1  
$EndComp
$Comp
L power:GND #PWR037
U 1 1 630324FC
P 9000 8450
F 0 "#PWR037" H 9000 8200 50  0001 C CNN
F 1 "GND" H 9000 8300 50  0000 C CNN
F 2 "" H 9000 8450 50  0001 C CNN
F 3 "" H 9000 8450 50  0001 C CNN
	1    9000 8450
	0    1    1    0   
$EndComp
$Comp
L components_main_board-rescue:215079-4-215079-4 J5
U 1 1 63009A23
P 10050 8450
F 0 "J5" H 9850 8600 50  0000 C CNN
F 1 "215079-4" H 9850 8200 50  0000 C CNN
F 2 "Micro-MaTch_215079-4:TE_215079-4" H 10050 8450 50  0001 L BNN
F 3 "" H 10050 8450 50  0001 L BNN
F 4 "Compliant" H 10050 8450 50  0001 L BNN "EU_RoHS_Compliance"
F 5 "215079-4" H 10050 8450 50  0001 L BNN "Comment"
	1    10050 8450
	1    0    0    -1  
$EndComp
$Comp
L components_main_board-rescue:FTSH-105-XX-X-DV-FTSH-105-01-L-DV-K J9
U 1 1 63414C06
P 14500 4500
F 0 "J9" H 14200 4850 50  0000 C CNN
F 1 "FTSH-105" H 14200 4100 50  0000 C CNN
F 2 "Samtec_FTSH-105-01-L-DV-K:SAMTEC_FTSH-105-XX-X-DV" H 14500 4500 50  0001 L BNN
F 3 "" H 14500 4500 50  0001 L BNN
F 4 "Manufacturer Recommendation" H 14500 4500 50  0001 L BNN "STANDARD"
F 5 "H" H 14500 4500 50  0001 L BNN "PARTREV"
F 6 "Samtec" H 14500 4500 50  0001 L BNN "MANUFACTURER"
	1    14500 4500
	1    0    0    -1  
$EndComp
Wire Wire Line
	13500 3800 13500 3850
Wire Wire Line
	12600 3800 13500 3800
$Comp
L power:GND #PWR061
U 1 1 6184D1E3
P 13450 5700
F 0 "#PWR061" H 13450 5450 50  0001 C CNN
F 1 "GND" H 13450 5550 50  0000 C CNN
F 2 "" H 13450 5700 50  0001 C CNN
F 3 "" H 13450 5700 50  0001 C CNN
	1    13450 5700
	1    0    0    -1  
$EndComp
$Comp
L Device:C C28
U 1 1 61844DEC
P 13450 5550
F 0 "C28" H 13475 5650 50  0000 L CNN
F 1 "100nF" H 13475 5450 50  0000 L CNN
F 2 "Capacitor_SMD:C_0603_1608Metric" H 13488 5400 50  0001 C CNN
F 3 "~" H 13450 5550 50  0001 C CNN
	1    13450 5550
	1    0    0    -1  
$EndComp
$Comp
L power:+3V3 #PWR060
U 1 1 61851015
P 13450 5200
F 0 "#PWR060" H 13450 5050 50  0001 C CNN
F 1 "+3V3" H 13450 5340 50  0000 C CNN
F 2 "" H 13450 5200 50  0001 C CNN
F 3 "" H 13450 5200 50  0001 C CNN
	1    13450 5200
	1    0    0    -1  
$EndComp
$Comp
L power:+3V3 #PWR063
U 1 1 645649FF
P 13900 4150
F 0 "#PWR063" H 13900 4000 50  0001 C CNN
F 1 "+3V3" H 13900 4290 50  0000 C CNN
F 2 "" H 13900 4150 50  0001 C CNN
F 3 "" H 13900 4150 50  0001 C CNN
	1    13900 4150
	1    0    0    -1  
$EndComp
Wire Wire Line
	14000 4300 13900 4300
$Comp
L power:GND #PWR064
U 1 1 645AE559
P 13900 4750
F 0 "#PWR064" H 13900 4500 50  0001 C CNN
F 1 "GND" H 13900 4600 50  0000 C CNN
F 2 "" H 13900 4750 50  0001 C CNN
F 3 "" H 13900 4750 50  0001 C CNN
	1    13900 4750
	1    0    0    -1  
$EndComp
Wire Wire Line
	14000 4500 13900 4500
Wire Wire Line
	14000 4700 13900 4700
NoConn ~ 14000 4600
NoConn ~ 15000 4500
NoConn ~ 15000 4600
Wire Wire Line
	4150 8850 3950 8850
Wire Wire Line
	4150 8750 4150 8850
$Comp
L power:+15V #PWR016
U 1 1 61FB463F
P 4150 8750
F 0 "#PWR016" H 4150 8600 50  0001 C CNN
F 1 "+15V" H 4150 8890 50  0000 C CNN
F 2 "" H 4150 8750 50  0001 C CNN
F 3 "" H 4150 8750 50  0001 C CNN
	1    4150 8750
	-1   0    0    -1  
$EndComp
Wire Wire Line
	2950 8850 2850 8850
$Comp
L components_main_board-rescue:BUK6Y10-30PX-BUK6Y10-30P Q1
U 1 1 61806EB8
P 3950 8850
F 0 "Q1" H 4800 9150 50  0000 C CNN
F 1 "BUK6Y10-30P" H 4800 9050 50  0000 C CNN
F 2 "BUK6Y10-30P:TO127P600X120-5N" H 4800 8950 50  0001 L CNN
F 3 "" H 4800 8850 50  0001 L CNN
F 4 "MOSFET BUK6Y10-30PX" H 4800 8750 50  0001 L CNN "Description"
F 5 "1.2" H 4800 8650 50  0001 L CNN "Height"
F 6 "Nexperia" H 4800 8550 50  0001 L CNN "Manufacturer_Name"
F 7 "BUK6Y10-30PX" H 4800 8450 50  0001 L CNN "Manufacturer_Part_Number"
F 8 "771-BUK6Y10-30PX" H 4800 8350 50  0001 L CNN "Mouser Part Number"
F 9 "https://www.mouser.co.uk/ProductDetail/Nexperia/BUK6Y10-30PX?qs=vmHwEFxEFR9UKLhknfc3PQ%3D%3D" H 4800 8250 50  0001 L CNN "Mouser Price/Stock"
F 10 "BUK6Y10-30PX" H 4800 8150 50  0001 L CNN "Arrow Part Number"
F 11 "https://www.arrow.com/en/products/buk6y10-30px/nexperia" H 4800 8050 50  0001 L CNN "Arrow Price/Stock"
	1    3950 8850
	-1   0    0    -1  
$EndComp
NoConn ~ 12750 6850
Wire Wire Line
	12450 6450 12450 6550
Connection ~ 4150 8850
Wire Wire Line
	5350 7950 5350 7900
Wire Wire Line
	5350 7950 5700 7950
Wire Wire Line
	2950 9050 2850 9050
Wire Wire Line
	2850 9050 2850 9000
Wire Wire Line
	2850 8950 2950 8950
Wire Wire Line
	3950 9050 4150 9050
Wire Wire Line
	4150 9050 4150 8950
Wire Wire Line
	3950 8950 4150 8950
Connection ~ 4150 8950
Wire Wire Line
	4150 8950 4150 8850
$Comp
L power:GNDPWR #PWR07
U 1 1 61EB84A7
P 2200 9100
F 0 "#PWR07" H 2200 8900 50  0001 C CNN
F 1 "GNDPWR" H 2200 8970 50  0000 C CNN
F 2 "" H 2200 9050 50  0001 C CNN
F 3 "" H 2200 9050 50  0001 C CNN
	1    2200 9100
	1    0    0    -1  
$EndComp
$Comp
L power:GNDPWR #PWR012
U 1 1 61EBB456
P 2850 8750
F 0 "#PWR012" H 2850 8550 50  0001 C CNN
F 1 "GNDPWR" H 2850 8620 50  0000 C CNN
F 2 "" H 2850 8700 50  0001 C CNN
F 3 "" H 2850 8700 50  0001 C CNN
	1    2850 8750
	0    1    1    0   
$EndComp
$Comp
L power:GNDPWR #PWR023
U 1 1 624B3E88
P 6750 2400
F 0 "#PWR023" H 6750 2200 50  0001 C CNN
F 1 "GNDPWR" H 6750 2270 50  0000 C CNN
F 2 "" H 6750 2350 50  0001 C CNN
F 3 "" H 6750 2350 50  0001 C CNN
	1    6750 2400
	1    0    0    -1  
$EndComp
$Comp
L power:+3V3 #PWR028
U 1 1 62DC0DCD
P 7050 7650
F 0 "#PWR028" H 7050 7500 50  0001 C CNN
F 1 "+3V3" H 7050 7790 50  0000 C CNN
F 2 "" H 7050 7650 50  0001 C CNN
F 3 "" H 7050 7650 50  0001 C CNN
	1    7050 7650
	1    0    0    -1  
$EndComp
Wire Wire Line
	7050 7950 7050 7650
$Comp
L Device:LED D1
U 1 1 61ED355F
P 7350 9750
F 0 "D1" H 7350 9850 50  0000 C CNN
F 1 "LED" H 7350 9650 50  0000 C CNN
F 2 "Diode_SMD:D_0603_1608Metric" H 7350 9750 50  0001 C CNN
F 3 "~" H 7350 9750 50  0001 C CNN
	1    7350 9750
	0    -1   -1   0   
$EndComp
$Comp
L Device:R R8
U 1 1 61EF8CF8
P 7150 9550
F 0 "R8" V 7230 9550 50  0000 R CNN
F 1 "3.3K" V 7150 9550 50  0000 R CNN
F 2 "Resistor_SMD:R_0603_1608Metric" V 7080 9550 50  0001 C CNN
F 3 "~" H 7150 9550 50  0001 C CNN
	1    7150 9550
	0    1    1    0   
$EndComp
Wire Wire Line
	6800 9550 7000 9550
$Comp
L Device:LED D2
U 1 1 61FECBFF
P 8600 5100
F 0 "D2" H 8600 5200 50  0000 C CNN
F 1 "LED" H 8600 5000 50  0000 C CNN
F 2 "Diode_SMD:D_0603_1608Metric" H 8600 5100 50  0001 C CNN
F 3 "~" H 8600 5100 50  0001 C CNN
	1    8600 5100
	0    -1   -1   0   
$EndComp
$Comp
L Device:R R15
U 1 1 61FECC05
P 8600 4800
F 0 "R15" V 8700 4900 50  0000 R CNN
F 1 "3.3K" V 8600 4900 50  0000 R CNN
F 2 "Resistor_SMD:R_0603_1608Metric" V 8530 4800 50  0001 C CNN
F 3 "~" H 8600 4800 50  0001 C CNN
	1    8600 4800
	1    0    0    -1  
$EndComp
$Comp
L power:GND #PWR043
U 1 1 61FECC0D
P 8600 5250
F 0 "#PWR043" H 8600 5000 50  0001 C CNN
F 1 "GND" H 8600 5100 50  0000 C CNN
F 2 "" H 8600 5250 50  0001 C CNN
F 3 "" H 8600 5250 50  0001 C CNN
	1    8600 5250
	1    0    0    -1  
$EndComp
Wire Wire Line
	1050 1950 1050 2100
Connection ~ 1050 1950
Wire Wire Line
	1050 1900 1050 1950
$Comp
L power:+15V #PWR01
U 1 1 62535D4B
P 1050 1900
F 0 "#PWR01" H 1050 1750 50  0001 C CNN
F 1 "+15V" H 1050 2040 50  0000 C CNN
F 2 "" H 1050 1900 50  0001 C CNN
F 3 "" H 1050 1900 50  0001 C CNN
	1    1050 1900
	1    0    0    -1  
$EndComp
Wire Wire Line
	1050 1950 1500 1950
$Comp
L Device:C C1
U 1 1 62535D59
P 1050 2250
F 0 "C1" H 1075 2350 50  0000 L CNN
F 1 "0.1μF" H 1075 2150 50  0000 L CNN
F 2 "Capacitor_SMD:C_0603_1608Metric" H 1088 2100 50  0001 C CNN
F 3 "~" H 1050 2250 50  0001 C CNN
	1    1050 2250
	1    0    0    -1  
$EndComp
Wire Wire Line
	1500 1950 1500 2100
$Comp
L Device:C C4
U 1 1 62535D67
P 1500 2250
F 0 "C4" H 1525 2350 50  0000 L CNN
F 1 "10μF" H 1525 2150 50  0000 L CNN
F 2 "Capacitor_SMD:C_1206_3216Metric" H 1538 2100 50  0001 C CNN
F 3 "~" H 1500 2250 50  0001 C CNN
	1    1500 2250
	1    0    0    -1  
$EndComp
Wire Wire Line
	1950 1950 1950 2100
$Comp
L Device:C C7
U 1 1 62535D75
P 1950 2250
F 0 "C7" H 1975 2350 50  0000 L CNN
F 1 "10μF" H 1975 2150 50  0000 L CNN
F 2 "Capacitor_SMD:C_1206_3216Metric" H 1988 2100 50  0001 C CNN
F 3 "~" H 1950 2250 50  0001 C CNN
	1    1950 2250
	1    0    0    -1  
$EndComp
Wire Wire Line
	2400 1950 2400 2100
$Comp
L Device:C C10
U 1 1 62535D83
P 2400 2250
F 0 "C10" H 2425 2350 50  0000 L CNN
F 1 "10μF" H 2425 2150 50  0000 L CNN
F 2 "Capacitor_SMD:C_1206_3216Metric" H 2438 2100 50  0001 C CNN
F 3 "~" H 2400 2250 50  0001 C CNN
	1    2400 2250
	1    0    0    -1  
$EndComp
Wire Wire Line
	2850 1950 2850 2100
$Comp
L Device:C C13
U 1 1 62535D91
P 2850 2250
F 0 "C13" H 2875 2350 50  0000 L CNN
F 1 "10μF" H 2875 2150 50  0000 L CNN
F 2 "Capacitor_SMD:C_1206_3216Metric" H 2888 2100 50  0001 C CNN
F 3 "~" H 2850 2250 50  0001 C CNN
	1    2850 2250
	1    0    0    -1  
$EndComp
$Comp
L power:GNDPWR #PWR09
U 1 1 62535D99
P 2400 2600
F 0 "#PWR09" H 2400 2400 50  0001 C CNN
F 1 "GNDPWR" H 2400 2470 50  0000 C CNN
F 2 "" H 2400 2550 50  0001 C CNN
F 3 "" H 2400 2550 50  0001 C CNN
	1    2400 2600
	1    0    0    -1  
$EndComp
Wire Wire Line
	2400 1950 2850 1950
Connection ~ 2850 1950
Wire Wire Line
	2400 1950 1950 1950
Connection ~ 2400 1950
Wire Wire Line
	1950 1950 1500 1950
Connection ~ 1950 1950
Connection ~ 1500 1950
$Comp
L Mechanical:MountingHole_Pad H1
U 1 1 625F9B7E
P 700 10650
F 0 "H1" H 700 10900 50  0000 L CNN
F 1 "H" H 700 10825 50  0000 L CNN
F 2 "MountingHole:MountingHole_2.2mm_M2_Pad" H 700 10650 50  0001 C CNN
F 3 "~" H 700 10650 50  0001 C CNN
	1    700  10650
	1    0    0    -1  
$EndComp
$Comp
L Mechanical:MountingHole_Pad H2
U 1 1 6261467C
P 1650 10650
F 0 "H2" H 1650 10900 50  0000 L CNN
F 1 "H" H 1650 10825 50  0000 L CNN
F 2 "MountingHole:MountingHole_2.2mm_M2_Pad" H 1650 10650 50  0001 C CNN
F 3 "~" H 1650 10650 50  0001 C CNN
	1    1650 10650
	1    0    0    -1  
$EndComp
$Comp
L Mechanical:MountingHole_Pad H3
U 1 1 6263CD92
P 2550 10650
F 0 "H3" H 2550 10900 50  0000 L CNN
F 1 "H" H 2550 10825 50  0000 L CNN
F 2 "MountingHole:MountingHole_2.2mm_M2_Pad" H 2550 10650 50  0001 C CNN
F 3 "~" H 2550 10650 50  0001 C CNN
	1    2550 10650
	1    0    0    -1  
$EndComp
$Comp
L Mechanical:MountingHole_Pad H4
U 1 1 626656F5
P 3500 10650
F 0 "H4" H 3500 10900 50  0000 L CNN
F 1 "H" H 3500 10825 50  0000 L CNN
F 2 "MountingHole:MountingHole_2.2mm_M2_Pad" H 3500 10650 50  0001 C CNN
F 3 "~" H 3500 10650 50  0001 C CNN
	1    3500 10650
	1    0    0    -1  
$EndComp
Text GLabel 5700 8050 0    50   Input ~ 0
IC1_EN
Wire Wire Line
	4950 7650 4950 7750
$Comp
L power:GND #PWR022
U 1 1 61A61F3E
P 5350 7900
F 0 "#PWR022" H 5350 7650 50  0001 C CNN
F 1 "GND" H 5350 7750 50  0000 C CNN
F 2 "" H 5350 7900 50  0001 C CNN
F 3 "" H 5350 7900 50  0001 C CNN
	1    5350 7900
	0    1    1    0   
$EndComp
Wire Wire Line
	5700 7850 5500 7850
Wire Wire Line
	5500 7850 5500 7750
Wire Wire Line
	5500 7750 4950 7750
Connection ~ 4950 7750
Wire Wire Line
	4950 7750 4950 7950
Wire Wire Line
	4650 7800 4650 7850
$Comp
L Device:C C22
U 1 1 619D9893
P 7050 8200
F 0 "C22" H 7075 8300 50  0000 L CNN
F 1 "1μF" H 7075 8100 50  0000 L CNN
F 2 "Capacitor_SMD:C_0603_1608Metric" H 7088 8050 50  0001 C CNN
F 3 "~" H 7050 8200 50  0001 C CNN
	1    7050 8200
	1    0    0    -1  
$EndComp
Text GLabel 4550 7850 0    50   Input ~ 0
IC1_EN
Wire Wire Line
	4550 7850 4650 7850
Wire Wire Line
	7300 9550 7350 9550
Wire Wire Line
	7350 9550 7350 9600
Wire Wire Line
	7350 9900 7350 9950
Wire Notes Line
	7550 7200 7550 10250
Wire Notes Line
	7550 10250 3950 10250
Wire Notes Line
	3950 10250 3950 9550
Wire Notes Line
	3950 9550 700  9550
Wire Notes Line
	700  7200 700  9550
Text Notes 700  7150 0    157  ~ 31
Power supply 4S battery
Wire Notes Line
	700  7200 7550 7200
Wire Wire Line
	6100 1950 6750 1950
$Comp
L power:GNDPWR #PWR031
U 1 1 624774FE
P 7450 2600
F 0 "#PWR031" H 7450 2400 50  0001 C CNN
F 1 "GNDPWR" H 7450 2470 50  0000 C CNN
F 2 "" H 7450 2550 50  0001 C CNN
F 3 "" H 7450 2550 50  0001 C CNN
	1    7450 2600
	1    0    0    -1  
$EndComp
$Comp
L Device:R R12
U 1 1 63DC2C02
P 7750 2250
F 0 "R12" V 7850 2300 50  0000 R CNN
F 1 "10K" V 7750 2300 50  0000 R CNN
F 2 "Resistor_SMD:R_0603_1608Metric" V 7680 2250 50  0001 C CNN
F 3 "~" H 7750 2250 50  0001 C CNN
	1    7750 2250
	1    0    0    -1  
$EndComp
Text GLabel 6100 2250 2    50   Input ~ 0
DRVOFF_M1
Text GLabel 7750 2100 1    50   Input ~ 0
DRVOFF_M1
Text GLabel 4100 1750 0    50   Input ~ 0
IPROPI_M1
Text GLabel 7450 2100 1    50   Input ~ 0
IPROPI_M1
$Comp
L Device:R R9
U 1 1 630F9DCF
P 7450 2250
F 0 "R9" V 7530 2250 50  0000 C CNN
F 1 "3.3K" V 7450 2250 50  0000 C CNN
F 2 "Resistor_SMD:R_0603_1608Metric" V 7380 2250 50  0001 C CNN
F 3 "~" H 7450 2250 50  0001 C CNN
	1    7450 2250
	-1   0    0    1   
$EndComp
Text GLabel 6100 1850 2    50   Input ~ 0
SR_M1
Text GLabel 7150 2100 1    50   Input ~ 0
SR_M1
Wire Wire Line
	7150 2500 7450 2500
Wire Wire Line
	7750 2500 7750 2400
Wire Wire Line
	7450 2400 7450 2500
Connection ~ 7450 2500
Wire Wire Line
	7450 2500 7750 2500
Wire Wire Line
	7450 2500 7450 2600
Text GLabel 4100 2250 0    50   Input ~ 0
M1_Out1
Text GLabel 4100 2050 0    50   Input ~ 0
M1_Out2
Wire Wire Line
	4100 2150 3650 2150
Text GLabel 2800 1650 2    50   Input ~ 0
M1_Out1
Text GLabel 2800 1750 2    50   Input ~ 0
M1_Out2
Text GLabel 6100 2050 2    50   Input ~ 0
M1_Dir_Driver
Text GLabel 6100 2150 2    50   Input ~ 0
M1_PWM_Driver
Wire Wire Line
	6100 1650 6750 1650
Wire Wire Line
	6750 1650 6750 1950
Connection ~ 6750 1950
Wire Wire Line
	6750 1950 6750 2400
Wire Wire Line
	1050 2400 1050 2500
Wire Wire Line
	1050 2500 1500 2500
Wire Wire Line
	3650 2150 3650 2500
Wire Wire Line
	2850 2400 2850 2500
Connection ~ 2850 2500
Wire Wire Line
	2400 2400 2400 2500
Connection ~ 2400 2500
Wire Wire Line
	2400 2500 2850 2500
Wire Wire Line
	1950 2400 1950 2500
Connection ~ 1950 2500
Wire Wire Line
	1950 2500 2400 2500
Wire Wire Line
	1500 2400 1500 2500
Connection ~ 1500 2500
Wire Wire Line
	1500 2500 1950 2500
Wire Wire Line
	2400 2600 2400 2500
NoConn ~ 6100 3350
NoConn ~ 4100 3250
$Comp
L Device:R R6
U 1 1 63D5441E
P 7150 3850
F 0 "R6" V 7230 3850 50  0000 C CNN
F 1 "0" V 7150 3850 50  0000 C CNN
F 2 "Resistor_SMD:R_0603_1608Metric" V 7080 3850 50  0001 C CNN
F 3 "~" H 7150 3850 50  0001 C CNN
	1    7150 3850
	-1   0    0    1   
$EndComp
$Comp
L power:GNDPWR #PWR024
U 1 1 63D54424
P 6750 4000
F 0 "#PWR024" H 6750 3800 50  0001 C CNN
F 1 "GNDPWR" H 6750 3870 50  0000 C CNN
F 2 "" H 6750 3950 50  0001 C CNN
F 3 "" H 6750 3950 50  0001 C CNN
	1    6750 4000
	1    0    0    -1  
$EndComp
Wire Wire Line
	6100 3550 6750 3550
$Comp
L power:GNDPWR #PWR032
U 1 1 63D54473
P 7450 4200
F 0 "#PWR032" H 7450 4000 50  0001 C CNN
F 1 "GNDPWR" H 7450 4070 50  0000 C CNN
F 2 "" H 7450 4150 50  0001 C CNN
F 3 "" H 7450 4150 50  0001 C CNN
	1    7450 4200
	1    0    0    -1  
$EndComp
$Comp
L Device:R R13
U 1 1 63D5447F
P 7750 3850
F 0 "R13" V 7850 3900 50  0000 R CNN
F 1 "10K" V 7750 3900 50  0000 R CNN
F 2 "Resistor_SMD:R_0603_1608Metric" V 7680 3850 50  0001 C CNN
F 3 "~" H 7750 3850 50  0001 C CNN
	1    7750 3850
	1    0    0    -1  
$EndComp
Text GLabel 6100 3850 2    50   Input ~ 0
DRVOFF_M2
Text GLabel 7750 3700 1    50   Input ~ 0
DRVOFF_M2
Text GLabel 4100 3350 0    50   Input ~ 0
IPROPI_M2
Text GLabel 7450 3700 1    50   Input ~ 0
IPROPI_M2
$Comp
L Device:R R10
U 1 1 63D54489
P 7450 3850
F 0 "R10" V 7530 3850 50  0000 C CNN
F 1 "3.3K" V 7450 3850 50  0000 C CNN
F 2 "Resistor_SMD:R_0603_1608Metric" V 7380 3850 50  0001 C CNN
F 3 "~" H 7450 3850 50  0001 C CNN
	1    7450 3850
	-1   0    0    1   
$EndComp
Text GLabel 6100 3450 2    50   Input ~ 0
SR_M2
Text GLabel 7150 3700 1    50   Input ~ 0
SR_M2
Wire Wire Line
	7150 4000 7150 4100
Wire Wire Line
	7150 4100 7450 4100
Wire Wire Line
	7750 4100 7750 4000
Wire Wire Line
	7450 4000 7450 4100
Connection ~ 7450 4100
Wire Wire Line
	7450 4100 7750 4100
Wire Wire Line
	7450 4100 7450 4200
Text GLabel 4100 3850 0    50   Input ~ 0
M2_Out1
Text GLabel 4100 3650 0    50   Input ~ 0
M2_Out2
Wire Wire Line
	4100 3750 3650 3750
Text GLabel 2800 3250 2    50   Input ~ 0
M2_Out1
Text GLabel 2800 3350 2    50   Input ~ 0
M2_Out2
Text GLabel 6100 3650 2    50   Input ~ 0
M2_Dir_Driver
Text GLabel 6100 3750 2    50   Input ~ 0
M2_PWM_Driver
Wire Wire Line
	6100 3250 6750 3250
Wire Wire Line
	6750 3250 6750 3550
Connection ~ 6750 3550
Wire Wire Line
	6750 3550 6750 4000
Wire Wire Line
	3650 3750 3650 4100
NoConn ~ 6100 4900
NoConn ~ 4100 4800
$Comp
L Device:R R7
U 1 1 63DD1633
P 7150 5400
F 0 "R7" V 7230 5400 50  0000 C CNN
F 1 "0" V 7150 5400 50  0000 C CNN
F 2 "Resistor_SMD:R_0603_1608Metric" V 7080 5400 50  0001 C CNN
F 3 "~" H 7150 5400 50  0001 C CNN
	1    7150 5400
	-1   0    0    1   
$EndComp
$Comp
L power:GNDPWR #PWR025
U 1 1 63DD1639
P 6750 5550
F 0 "#PWR025" H 6750 5350 50  0001 C CNN
F 1 "GNDPWR" H 6750 5420 50  0000 C CNN
F 2 "" H 6750 5500 50  0001 C CNN
F 3 "" H 6750 5500 50  0001 C CNN
	1    6750 5550
	1    0    0    -1  
$EndComp
Wire Wire Line
	6100 5100 6750 5100
$Comp
L power:GNDPWR #PWR033
U 1 1 63DD1688
P 7450 5750
F 0 "#PWR033" H 7450 5550 50  0001 C CNN
F 1 "GNDPWR" H 7450 5620 50  0000 C CNN
F 2 "" H 7450 5700 50  0001 C CNN
F 3 "" H 7450 5700 50  0001 C CNN
	1    7450 5750
	1    0    0    -1  
$EndComp
Text GLabel 6100 5400 2    50   Input ~ 0
DRVOFF_M3
Text GLabel 7750 5250 1    50   Input ~ 0
DRVOFF_M3
Text GLabel 4100 4900 0    50   Input ~ 0
IPROPI_M3
Text GLabel 7450 5250 1    50   Input ~ 0
IPROPI_M3
$Comp
L Device:R R11
U 1 1 63DD169E
P 7450 5400
F 0 "R11" V 7530 5400 50  0000 C CNN
F 1 "3.3K" V 7450 5400 50  0000 C CNN
F 2 "Resistor_SMD:R_0603_1608Metric" V 7380 5400 50  0001 C CNN
F 3 "~" H 7450 5400 50  0001 C CNN
	1    7450 5400
	-1   0    0    1   
$EndComp
Text GLabel 6100 5000 2    50   Input ~ 0
SR_M3
Text GLabel 7150 5250 1    50   Input ~ 0
SR_M3
Wire Wire Line
	7150 5550 7150 5650
Wire Wire Line
	7150 5650 7450 5650
Wire Wire Line
	7450 5550 7450 5650
Connection ~ 7450 5650
Wire Wire Line
	7450 5650 7450 5750
Text GLabel 4100 5400 0    50   Input ~ 0
M3_Out1
Text GLabel 4100 5200 0    50   Input ~ 0
M3_Out2
Wire Wire Line
	4100 5300 3650 5300
Text GLabel 2800 4800 2    50   Input ~ 0
M3_Out1
Text GLabel 2800 4900 2    50   Input ~ 0
M3_Out2
Text GLabel 6100 5200 2    50   Input ~ 0
M3_Dir_Driver
Text GLabel 6100 5300 2    50   Input ~ 0
M3_PWM_Driver
Wire Wire Line
	6100 4800 6750 4800
Wire Wire Line
	6750 4800 6750 5100
Connection ~ 6750 5100
Wire Wire Line
	6750 5100 6750 5550
Wire Wire Line
	3650 5300 3650 5650
Wire Notes Line
	900  1100 8050 1100
Wire Notes Line
	8050 1100 8050 6050
Wire Notes Line
	8050 6050 900  6050
Wire Notes Line
	900  6050 900  1100
Text Notes 900  1050 0    157  ~ 31
Motor drivers
$Comp
L components_main_board-rescue:MAX14930DASE+-MAX14930DASE+ U4
U 1 1 619A2564
P 9150 1500
F 0 "U4" H 9950 1900 60  0000 C CNN
F 1 "MAX14930DASE+" H 9950 1800 60  0000 C CNN
F 2 "MAX14930DASE+:MAX14930DASE&plus_" H 9950 1740 60  0001 C CNN
F 3 "" H 9150 1500 60  0000 C CNN
	1    9150 1500
	1    0    0    -1  
$EndComp
Wire Wire Line
	9100 2200 9100 2250
Wire Wire Line
	9150 2200 9100 2200
$Comp
L power:GND #PWR040
U 1 1 62A4EFA9
P 9100 2250
F 0 "#PWR040" H 9100 2000 50  0001 C CNN
F 1 "GND" H 9100 2100 50  0000 C CNN
F 2 "" H 9100 2250 50  0001 C CNN
F 3 "" H 9100 2250 50  0001 C CNN
	1    9100 2250
	1    0    0    -1  
$EndComp
NoConn ~ 10750 2100
NoConn ~ 9150 2100
$Comp
L Device:C C26
U 1 1 619A257C
P 11650 1750
F 0 "C26" H 11675 1850 50  0000 L CNN
F 1 "0.1μF" H 11675 1650 50  0000 L CNN
F 2 "Capacitor_SMD:C_0603_1608Metric" H 11688 1600 50  0001 C CNN
F 3 "~" H 11650 1750 50  0001 C CNN
	1    11650 1750
	1    0    0    -1  
$EndComp
$Comp
L power:+5V #PWR050
U 1 1 619A2570
P 11650 1400
F 0 "#PWR050" H 11650 1250 50  0001 C CNN
F 1 "+5V" H 11650 1540 50  0000 C CNN
F 2 "" H 11650 1400 50  0001 C CNN
F 3 "" H 11650 1400 50  0001 C CNN
	1    11650 1400
	1    0    0    -1  
$EndComp
$Comp
L Device:C C23
U 1 1 619A2582
P 8600 1750
F 0 "C23" H 8625 1850 50  0000 L CNN
F 1 "0.1μF" H 8625 1650 50  0000 L CNN
F 2 "Capacitor_SMD:C_0603_1608Metric" H 8638 1600 50  0001 C CNN
F 3 "~" H 8600 1750 50  0001 C CNN
	1    8600 1750
	-1   0    0    1   
$EndComp
$Comp
L power:+3V3 #PWR035
U 1 1 619A2576
P 8600 1400
F 0 "#PWR035" H 8600 1250 50  0001 C CNN
F 1 "+3V3" H 8600 1540 50  0000 C CNN
F 2 "" H 8600 1400 50  0001 C CNN
F 3 "" H 8600 1400 50  0001 C CNN
	1    8600 1400
	1    0    0    -1  
$EndComp
Wire Wire Line
	10800 2250 10800 2200
Wire Wire Line
	10800 2200 10750 2200
Text GLabel 10750 2000 2    50   Input ~ 0
M2_Dir_Driver
Text GLabel 10750 1900 2    50   Input ~ 0
M2_PWM_Driver
Text GLabel 10750 1800 2    50   Input ~ 0
M1_Dir_Driver
Text GLabel 10750 1700 2    50   Input ~ 0
M1_PWM_Driver
Wire Wire Line
	11650 1900 11650 1950
Wire Wire Line
	11650 1400 11650 1500
Wire Wire Line
	11450 1600 11450 1950
Wire Wire Line
	11450 1950 11650 1950
Wire Wire Line
	10750 1600 11450 1600
Connection ~ 11650 1950
Wire Wire Line
	11650 1950 11650 2050
Wire Wire Line
	10750 1500 11650 1500
Connection ~ 11650 1500
Wire Wire Line
	11650 1500 11650 1600
Text GLabel 9150 1800 0    50   Input ~ 0
M1_Dir
Text GLabel 9150 1700 0    50   Input ~ 0
M1_PWM
Text GLabel 9150 2000 0    50   Input ~ 0
M2_Dir
Text GLabel 9150 1900 0    50   Input ~ 0
M2_PWM
Wire Wire Line
	8750 1600 9150 1600
Wire Wire Line
	8600 1900 8600 2000
Wire Wire Line
	8600 1400 8600 1500
Wire Wire Line
	9150 1500 8600 1500
Connection ~ 8600 1500
Wire Wire Line
	8600 1500 8600 1600
Wire Wire Line
	8750 2000 8600 2000
Wire Wire Line
	8750 1600 8750 2000
Connection ~ 8600 2000
Wire Wire Line
	8600 2000 8600 2150
Text GLabel 14650 1650 2    50   Input ~ 0
Thrower_PWM_Out
Text GLabel 14650 1950 2    50   Input ~ 0
M3_Dir_Driver
Text GLabel 14650 1850 2    50   Input ~ 0
M3_PWM_Driver
$Comp
L components_main_board-rescue:MAX14930DASE+-MAX14930DASE+ U7
U 1 1 6180341E
P 13050 1450
F 0 "U7" H 13850 1850 60  0000 C CNN
F 1 "MAX14930DASE+" H 13850 1750 60  0000 C CNN
F 2 "MAX14930DASE+:MAX14930DASE&plus_" H 13850 1690 60  0001 C CNN
F 3 "" H 13050 1450 60  0000 C CNN
	1    13050 1450
	1    0    0    -1  
$EndComp
Wire Wire Line
	14650 2150 14700 2150
Wire Wire Line
	14700 2150 14700 2250
Wire Wire Line
	13000 2250 13000 2150
Wire Wire Line
	13000 2150 13050 2150
Wire Wire Line
	15550 1850 15550 1900
Wire Wire Line
	15550 1350 15550 1450
Wire Wire Line
	14650 1450 15550 1450
Connection ~ 15550 1450
Wire Wire Line
	15550 1450 15550 1550
Wire Wire Line
	14650 1550 15400 1550
Wire Wire Line
	15400 1550 15400 1900
Wire Wire Line
	15400 1900 15550 1900
Connection ~ 15550 1900
Wire Wire Line
	15550 1900 15550 2000
Text GLabel 13050 1650 0    50   Input ~ 0
Thrower_PWM
Text GLabel 13050 1950 0    50   Input ~ 0
M3_Dir
Text GLabel 13050 1850 0    50   Input ~ 0
M3_PWM
Wire Wire Line
	12150 1750 12150 1800
Wire Wire Line
	12300 1800 12150 1800
Connection ~ 12150 1800
Wire Wire Line
	12150 1800 12150 1900
Wire Notes Line
	8200 950  16000 950 
Wire Notes Line
	16000 950  16000 3000
Wire Notes Line
	8200 950  8200 3000
Text Notes 9850 950  0    157  ~ 31
M1, M2, M3, Thrower Motor Isolators
$Comp
L power:GND #PWR036
U 1 1 619A256A
P 8600 2150
F 0 "#PWR036" H 8600 1900 50  0001 C CNN
F 1 "GND" H 8600 2000 50  0000 C CNN
F 2 "" H 8600 2150 50  0001 C CNN
F 3 "" H 8600 2150 50  0001 C CNN
	1    8600 2150
	1    0    0    -1  
$EndComp
$Comp
L power:GNDPWR #PWR049
U 1 1 64C6DE20
P 10800 2250
F 0 "#PWR049" H 10800 2050 50  0001 C CNN
F 1 "GNDPWR" H 10800 2120 50  0000 C CNN
F 2 "" H 10800 2200 50  0001 C CNN
F 3 "" H 10800 2200 50  0001 C CNN
	1    10800 2250
	1    0    0    -1  
$EndComp
Wire Notes Line
	16000 3000 8200 3000
$Comp
L power:GNDPWR #PWR051
U 1 1 64D5A496
P 11650 2050
F 0 "#PWR051" H 11650 1850 50  0001 C CNN
F 1 "GNDPWR" H 11650 1920 50  0000 C CNN
F 2 "" H 11650 2000 50  0001 C CNN
F 3 "" H 11650 2000 50  0001 C CNN
	1    11650 2050
	1    0    0    -1  
$EndComp
$Comp
L power:GNDPWR #PWR065
U 1 1 64D914E6
P 14700 2250
F 0 "#PWR065" H 14700 2050 50  0001 C CNN
F 1 "GNDPWR" H 14700 2120 50  0000 C CNN
F 2 "" H 14700 2200 50  0001 C CNN
F 3 "" H 14700 2200 50  0001 C CNN
	1    14700 2250
	1    0    0    -1  
$EndComp
$Comp
L power:GNDPWR #PWR067
U 1 1 64DC87B8
P 15550 2000
F 0 "#PWR067" H 15550 1800 50  0001 C CNN
F 1 "GNDPWR" H 15550 1870 50  0000 C CNN
F 2 "" H 15550 1950 50  0001 C CNN
F 3 "" H 15550 1950 50  0001 C CNN
	1    15550 2000
	1    0    0    -1  
$EndComp
Text Notes 2050 3400 0    157  ~ 31
M2
Text Notes 2050 4950 0    157  ~ 31
M3
Text GLabel 10000 4100 0    50   Input ~ 0
NRST
Text GLabel 10000 4500 0    50   Input ~ 0
M1_PWM
Text GLabel 10000 4300 0    50   Input ~ 0
M2_PWM
Text GLabel 10000 4700 0    50   Input ~ 0
M3_PWM
Text GLabel 10000 4900 0    50   Input ~ 0
Thrower_PWM
Text GLabel 10000 4400 0    50   Input ~ 0
M1_Dir
Text GLabel 10000 4200 0    50   Input ~ 0
M2_Dir
Text GLabel 10000 4600 0    50   Input ~ 0
M3_Dir
Wire Wire Line
	10000 3800 9500 3800
Wire Wire Line
	9500 3800 9500 3850
Wire Wire Line
	9500 3750 9500 3800
Connection ~ 9500 3800
Wire Wire Line
	10000 5300 9950 5300
Wire Wire Line
	9950 5300 9950 5400
Text GLabel 12600 5200 2    50   Input ~ 0
M1_Encoder_CH1
Text GLabel 12600 5100 2    50   Input ~ 0
M1_Encoder_CH2
Text GLabel 12600 4900 2    50   Input ~ 0
USB_DM
Text GLabel 12600 4800 2    50   Input ~ 0
USB_DP
Text GLabel 12600 4700 2    50   Input ~ 0
Programmer_DIO
Text GLabel 12600 4600 2    50   Input ~ 0
Programmer_Clk
Text GLabel 12600 4300 2    50   Input ~ 0
M2_Encoder_CH1
Text GLabel 12600 4200 2    50   Input ~ 0
M2_Encoder_CH2
Text GLabel 12600 4100 2    50   Input ~ 0
M3_Encoder_CH1
Text GLabel 12600 4000 2    50   Input ~ 0
M3_Encoder_CH2
Wire Wire Line
	13450 5200 13450 5300
Wire Wire Line
	12600 5300 13450 5300
Connection ~ 13450 5300
Wire Wire Line
	13450 5300 13450 5400
Wire Wire Line
	8750 4200 8750 4300
Wire Wire Line
	8750 4300 8300 4300
Connection ~ 8300 4300
Wire Wire Line
	8300 4300 8300 4250
Text GLabel 8900 3800 2    50   Input ~ 0
NRST
Wire Wire Line
	8900 3800 8750 3800
Connection ~ 8750 3800
Text GLabel 11950 6850 2    50   Input ~ 0
USB_DM
Text GLabel 11950 6950 2    50   Input ~ 0
USB_DP
Text GLabel 12750 6650 0    50   Input ~ 0
USB_DM
Text GLabel 12750 6750 0    50   Input ~ 0
USB_DP
Wire Wire Line
	12450 7100 12450 6950
Wire Wire Line
	12450 6950 12750 6950
Wire Wire Line
	12450 6550 12750 6550
Wire Notes Line
	8850 6100 8850 7700
Wire Notes Line
	8850 7700 15250 7700
Wire Notes Line
	15250 7700 15250 6100
Wire Notes Line
	15250 6100 8850 6100
Text Notes 13650 6500 0    157  ~ 31
Micro USB
Wire Wire Line
	13900 4750 13900 4700
Connection ~ 13900 4700
Wire Wire Line
	13900 4700 13900 4500
Connection ~ 13900 4500
Wire Wire Line
	13900 4500 13900 4400
Wire Wire Line
	13900 4400 14000 4400
Wire Wire Line
	13900 4150 13900 4300
Text GLabel 15000 4700 2    50   Input ~ 0
NRST
Text GLabel 15000 4300 2    50   Input ~ 0
Programmer_DIO
Text GLabel 15000 4400 2    50   Input ~ 0
Programmer_Clk
Text Notes 8350 8350 0    157  ~ 31
Encoder_M1
Text GLabel 9650 8550 0    50   Input ~ 0
M1_Encoder_CH1
Text GLabel 10450 8550 2    50   Input ~ 0
M1_Encoder_CH2
Wire Wire Line
	9650 8450 9000 8450
$Comp
L power:+3V3 #PWR047
U 1 1 65BD5715
P 10450 9150
F 0 "#PWR047" H 10450 9000 50  0001 C CNN
F 1 "+3V3" H 10450 9290 50  0000 C CNN
F 2 "" H 10450 9150 50  0001 C CNN
F 3 "" H 10450 9150 50  0001 C CNN
	1    10450 9150
	1    0    0    -1  
$EndComp
$Comp
L power:GND #PWR038
U 1 1 65BD571B
P 9000 9150
F 0 "#PWR038" H 9000 8900 50  0001 C CNN
F 1 "GND" H 9000 9000 50  0000 C CNN
F 2 "" H 9000 9150 50  0001 C CNN
F 3 "" H 9000 9150 50  0001 C CNN
	1    9000 9150
	0    1    1    0   
$EndComp
$Comp
L components_main_board-rescue:215079-4-215079-4 J6
U 1 1 65BD5723
P 10050 9150
F 0 "J6" H 9850 9300 50  0000 C CNN
F 1 "215079-4" H 9850 8900 50  0000 C CNN
F 2 "Micro-MaTch_215079-4:TE_215079-4" H 10050 9150 50  0001 L BNN
F 3 "" H 10050 9150 50  0001 L BNN
F 4 "Compliant" H 10050 9150 50  0001 L BNN "EU_RoHS_Compliance"
F 5 "215079-4" H 10050 9150 50  0001 L BNN "Comment"
	1    10050 9150
	1    0    0    -1  
$EndComp
Text Notes 8350 9050 0    157  ~ 31
Encoder_M2
Text GLabel 9650 9250 0    50   Input ~ 0
M2_Encoder_CH1
Text GLabel 10450 9250 2    50   Input ~ 0
M2_Encoder_CH2
Wire Wire Line
	9650 9150 9000 9150
$Comp
L power:+3V3 #PWR048
U 1 1 65BE71CC
P 10450 9750
F 0 "#PWR048" H 10450 9600 50  0001 C CNN
F 1 "+3V3" H 10450 9890 50  0000 C CNN
F 2 "" H 10450 9750 50  0001 C CNN
F 3 "" H 10450 9750 50  0001 C CNN
	1    10450 9750
	1    0    0    -1  
$EndComp
$Comp
L power:GND #PWR039
U 1 1 65BE71D2
P 9000 9750
F 0 "#PWR039" H 9000 9500 50  0001 C CNN
F 1 "GND" H 9000 9600 50  0000 C CNN
F 2 "" H 9000 9750 50  0001 C CNN
F 3 "" H 9000 9750 50  0001 C CNN
	1    9000 9750
	0    1    1    0   
$EndComp
$Comp
L components_main_board-rescue:215079-4-215079-4 J7
U 1 1 65BE71DA
P 10050 9750
F 0 "J7" H 9850 9900 50  0000 C CNN
F 1 "215079-4" H 9850 9500 50  0000 C CNN
F 2 "Micro-MaTch_215079-4:TE_215079-4" H 10050 9750 50  0001 L BNN
F 3 "" H 10050 9750 50  0001 L BNN
F 4 "Compliant" H 10050 9750 50  0001 L BNN "EU_RoHS_Compliance"
F 5 "215079-4" H 10050 9750 50  0001 L BNN "Comment"
	1    10050 9750
	1    0    0    -1  
$EndComp
Text Notes 8350 9650 0    157  ~ 31
Encoder_M3
Text GLabel 9650 9850 0    50   Input ~ 0
M3_Encoder_CH1
Text GLabel 10450 9850 2    50   Input ~ 0
M3_Encoder_CH2
Wire Wire Line
	9650 9750 9000 9750
$Comp
L components_main_board-rescue:215079-4-215079-4 J8
U 1 1 65C11BB3
P 12600 8550
F 0 "J8" H 12400 8700 50  0000 C CNN
F 1 "215079-4" H 12400 8300 50  0000 C CNN
F 2 "Micro-MaTch_215079-4:TE_215079-4" H 12600 8550 50  0001 L BNN
F 3 "" H 12600 8550 50  0001 L BNN
F 4 "Compliant" H 12600 8550 50  0001 L BNN "EU_RoHS_Compliance"
F 5 "215079-4" H 12600 8550 50  0001 L BNN "Comment"
	1    12600 8550
	1    0    0    -1  
$EndComp
Text Notes 11750 8350 0    157  ~ 31
Connector_Thrower
Text GLabel 13000 8550 2    50   Input ~ 0
Thrower_PWM_Out
Text Notes 1150 10400 0    157  ~ 31
Mounting holes
$Comp
L power:PWR_FLAG #FLG02
U 1 1 65D3F587
P 1550 7850
F 0 "#FLG02" H 1550 7925 50  0001 C CNN
F 1 "PWR_FLAG" H 1550 8000 50  0000 C CNN
F 2 "" H 1550 7850 50  0001 C CNN
F 3 "~" H 1550 7850 50  0001 C CNN
	1    1550 7850
	1    0    0    -1  
$EndComp
$Comp
L power:PWR_FLAG #FLG03
U 1 1 65D41D22
P 2000 7850
F 0 "#FLG03" H 2000 7925 50  0001 C CNN
F 1 "PWR_FLAG" H 2000 8000 50  0000 C CNN
F 2 "" H 2000 7850 50  0001 C CNN
F 3 "~" H 2000 7850 50  0001 C CNN
	1    2000 7850
	1    0    0    -1  
$EndComp
$Comp
L power:GNDPWR #PWR05
U 1 1 65D54B26
P 1550 7850
F 0 "#PWR05" H 1550 7650 50  0001 C CNN
F 1 "GNDPWR" H 1550 7720 50  0000 C CNN
F 2 "" H 1550 7800 50  0001 C CNN
F 3 "" H 1550 7800 50  0001 C CNN
	1    1550 7850
	1    0    0    -1  
$EndComp
Wire Wire Line
	2300 7850 2300 7950
Wire Wire Line
	2300 7950 2000 7950
Wire Wire Line
	2000 7950 2000 7850
$Comp
L power:PWR_FLAG #FLG01
U 1 1 65DA2D1A
P 1150 7850
F 0 "#FLG01" H 1150 7925 50  0001 C CNN
F 1 "PWR_FLAG" H 1150 8000 50  0000 C CNN
F 2 "" H 1150 7850 50  0001 C CNN
F 3 "~" H 1150 7850 50  0001 C CNN
	1    1150 7850
	1    0    0    -1  
$EndComp
$Comp
L power:GND #PWR04
U 1 1 65DBA409
P 1150 7850
F 0 "#PWR04" H 1150 7600 50  0001 C CNN
F 1 "GND" H 1150 7700 50  0000 C CNN
F 2 "" H 1150 7850 50  0001 C CNN
F 3 "" H 1150 7850 50  0001 C CNN
	1    1150 7850
	1    0    0    -1  
$EndComp
$Comp
L power:GNDPWR #PWR019
U 1 1 65E2D234
P 4900 10000
F 0 "#PWR019" H 4900 9800 50  0001 C CNN
F 1 "GNDPWR" H 4900 9870 50  0000 C CNN
F 2 "" H 4900 9950 50  0001 C CNN
F 3 "" H 4900 9950 50  0001 C CNN
	1    4900 10000
	1    0    0    -1  
$EndComp
Connection ~ 2850 9000
Wire Wire Line
	2850 9000 2850 8950
Wire Wire Line
	2850 8750 2850 8850
Wire Wire Line
	4900 9550 4900 10000
$Comp
L Device:C C21
U 1 1 61AC68C0
P 6800 9800
F 0 "C21" H 6825 9900 50  0000 L CNN
F 1 "1μF" H 6825 9700 50  0000 L CNN
F 2 "Capacitor_SMD:C_0603_1608Metric" H 6838 9650 50  0001 C CNN
F 3 "~" H 6800 9800 50  0001 C CNN
	1    6800 9800
	1    0    0    -1  
$EndComp
NoConn ~ 13000 8650
NoConn ~ 12200 8650
$Comp
L power:+15V #PWR08
U 1 1 66235E19
P 2300 7850
F 0 "#PWR08" H 2300 7700 50  0001 C CNN
F 1 "+15V" H 2300 7990 50  0000 C CNN
F 2 "" H 2300 7850 50  0001 C CNN
F 3 "" H 2300 7850 50  0001 C CNN
	1    2300 7850
	-1   0    0    -1  
$EndComp
$Comp
L power:+5C #PWR056
U 1 1 61A9FCBE
P 12450 6450
F 0 "#PWR056" H 12450 6300 50  0001 C CNN
F 1 "+5C" H 12450 6590 50  0000 C CNN
F 2 "" H 12450 6450 50  0001 C CNN
F 3 "" H 12450 6450 50  0001 C CNN
	1    12450 6450
	1    0    0    -1  
$EndComp
$Comp
L power:+5C #PWR052
U 1 1 61AA18CD
P 12000 6650
F 0 "#PWR052" H 12000 6500 50  0001 C CNN
F 1 "+5C" H 12000 6790 50  0000 C CNN
F 2 "" H 12000 6650 50  0001 C CNN
F 3 "" H 12000 6650 50  0001 C CNN
	1    12000 6650
	1    0    0    -1  
$EndComp
$Comp
L power:+5C #PWR017
U 1 1 61B0C206
P 4650 7500
F 0 "#PWR017" H 4650 7350 50  0001 C CNN
F 1 "+5C" H 4650 7640 50  0000 C CNN
F 2 "" H 4650 7500 50  0001 C CNN
F 3 "" H 4650 7500 50  0001 C CNN
	1    4650 7500
	1    0    0    -1  
$EndComp
$Comp
L power:+5C #PWR020
U 1 1 61B50647
P 4950 7650
F 0 "#PWR020" H 4950 7500 50  0001 C CNN
F 1 "+5C" H 4950 7790 50  0000 C CNN
F 2 "" H 4950 7650 50  0001 C CNN
F 3 "" H 4950 7650 50  0001 C CNN
	1    4950 7650
	1    0    0    -1  
$EndComp
$Comp
L power:GNDPWR #PWR027
U 1 1 61BAEAC3
P 6800 9950
F 0 "#PWR027" H 6800 9750 50  0001 C CNN
F 1 "GNDPWR" H 6800 9820 50  0000 C CNN
F 2 "" H 6800 9900 50  0001 C CNN
F 3 "" H 6800 9900 50  0001 C CNN
	1    6800 9950
	1    0    0    -1  
$EndComp
$Comp
L power:GNDPWR #PWR030
U 1 1 61BF2FBB
P 7350 9950
F 0 "#PWR030" H 7350 9750 50  0001 C CNN
F 1 "GNDPWR" H 7350 9820 50  0000 C CNN
F 2 "" H 7350 9900 50  0001 C CNN
F 3 "" H 7350 9900 50  0001 C CNN
	1    7350 9950
	1    0    0    -1  
$EndComp
NoConn ~ 5300 9650
$Comp
L Device:R R1
U 1 1 61D08D7A
P 4100 1450
F 0 "R1" V 4180 1450 50  0000 C CNN
F 1 "10K" V 4100 1450 50  0000 C CNN
F 2 "Resistor_SMD:R_0603_1608Metric" V 4030 1450 50  0001 C CNN
F 3 "~" H 4100 1450 50  0001 C CNN
	1    4100 1450
	0    -1   -1   0   
$EndComp
$Comp
L power:+5V #PWR013
U 1 1 61D08D81
P 4250 1450
F 0 "#PWR013" H 4250 1300 50  0001 C CNN
F 1 "+5V" H 4250 1590 50  0000 C CNN
F 2 "" H 4250 1450 50  0001 C CNN
F 3 "" H 4250 1450 50  0001 C CNN
	1    4250 1450
	1    0    0    -1  
$EndComp
Wire Wire Line
	1050 3550 1050 3700
Connection ~ 1050 3550
Wire Wire Line
	1050 3500 1050 3550
$Comp
L power:+15V #PWR02
U 1 1 61D6E67A
P 1050 3500
F 0 "#PWR02" H 1050 3350 50  0001 C CNN
F 1 "+15V" H 1050 3640 50  0000 C CNN
F 2 "" H 1050 3500 50  0001 C CNN
F 3 "" H 1050 3500 50  0001 C CNN
	1    1050 3500
	1    0    0    -1  
$EndComp
Wire Wire Line
	1050 3550 1500 3550
$Comp
L Device:C C2
U 1 1 61D6E681
P 1050 3850
F 0 "C2" H 1075 3950 50  0000 L CNN
F 1 "0.1μF" H 1075 3750 50  0000 L CNN
F 2 "Capacitor_SMD:C_0603_1608Metric" H 1088 3700 50  0001 C CNN
F 3 "~" H 1050 3850 50  0001 C CNN
	1    1050 3850
	1    0    0    -1  
$EndComp
Wire Wire Line
	1500 3550 1500 3700
$Comp
L Device:C C5
U 1 1 61D6E688
P 1500 3850
F 0 "C5" H 1525 3950 50  0000 L CNN
F 1 "10μF" H 1525 3750 50  0000 L CNN
F 2 "Capacitor_SMD:C_1206_3216Metric" H 1538 3700 50  0001 C CNN
F 3 "~" H 1500 3850 50  0001 C CNN
	1    1500 3850
	1    0    0    -1  
$EndComp
Wire Wire Line
	1950 3550 1950 3700
$Comp
L Device:C C8
U 1 1 61D6E68F
P 1950 3850
F 0 "C8" H 1975 3950 50  0000 L CNN
F 1 "10μF" H 1975 3750 50  0000 L CNN
F 2 "Capacitor_SMD:C_1206_3216Metric" H 1988 3700 50  0001 C CNN
F 3 "~" H 1950 3850 50  0001 C CNN
	1    1950 3850
	1    0    0    -1  
$EndComp
Wire Wire Line
	2400 3550 2400 3700
$Comp
L Device:C C11
U 1 1 61D6E696
P 2400 3850
F 0 "C11" H 2425 3950 50  0000 L CNN
F 1 "10μF" H 2425 3750 50  0000 L CNN
F 2 "Capacitor_SMD:C_1206_3216Metric" H 2438 3700 50  0001 C CNN
F 3 "~" H 2400 3850 50  0001 C CNN
	1    2400 3850
	1    0    0    -1  
$EndComp
Wire Wire Line
	2850 3550 2850 3700
$Comp
L Device:C C14
U 1 1 61D6E69D
P 2850 3850
F 0 "C14" H 2875 3950 50  0000 L CNN
F 1 "10μF" H 2875 3750 50  0000 L CNN
F 2 "Capacitor_SMD:C_1206_3216Metric" H 2888 3700 50  0001 C CNN
F 3 "~" H 2850 3850 50  0001 C CNN
	1    2850 3850
	1    0    0    -1  
$EndComp
$Comp
L power:GNDPWR #PWR010
U 1 1 61D6E6A5
P 2400 4200
F 0 "#PWR010" H 2400 4000 50  0001 C CNN
F 1 "GNDPWR" H 2400 4070 50  0000 C CNN
F 2 "" H 2400 4150 50  0001 C CNN
F 3 "" H 2400 4150 50  0001 C CNN
	1    2400 4200
	1    0    0    -1  
$EndComp
Wire Wire Line
	2400 3550 2850 3550
Connection ~ 2850 3550
Wire Wire Line
	2400 3550 1950 3550
Connection ~ 2400 3550
Wire Wire Line
	1950 3550 1500 3550
Connection ~ 1950 3550
Connection ~ 1500 3550
Wire Wire Line
	1050 4000 1050 4100
Wire Wire Line
	1050 4100 1500 4100
Wire Wire Line
	2850 4000 2850 4100
Connection ~ 2850 4100
Wire Wire Line
	2400 4000 2400 4100
Connection ~ 2400 4100
Wire Wire Line
	2400 4100 2850 4100
Wire Wire Line
	1950 4000 1950 4100
Connection ~ 1950 4100
Wire Wire Line
	1950 4100 2400 4100
Wire Wire Line
	1500 4000 1500 4100
Connection ~ 1500 4100
Wire Wire Line
	1500 4100 1950 4100
Wire Wire Line
	2400 4200 2400 4100
Wire Wire Line
	1050 5100 1050 5250
Connection ~ 1050 5100
Wire Wire Line
	1050 5050 1050 5100
$Comp
L power:+15V #PWR03
U 1 1 61DA8D5E
P 1050 5050
F 0 "#PWR03" H 1050 4900 50  0001 C CNN
F 1 "+15V" H 1050 5190 50  0000 C CNN
F 2 "" H 1050 5050 50  0001 C CNN
F 3 "" H 1050 5050 50  0001 C CNN
	1    1050 5050
	1    0    0    -1  
$EndComp
Wire Wire Line
	1050 5100 1500 5100
$Comp
L Device:C C3
U 1 1 61DA8D65
P 1050 5400
F 0 "C3" H 1075 5500 50  0000 L CNN
F 1 "0.1μF" H 1075 5300 50  0000 L CNN
F 2 "Capacitor_SMD:C_0603_1608Metric" H 1088 5250 50  0001 C CNN
F 3 "~" H 1050 5400 50  0001 C CNN
	1    1050 5400
	1    0    0    -1  
$EndComp
Wire Wire Line
	1500 5100 1500 5250
$Comp
L Device:C C6
U 1 1 61DA8D6C
P 1500 5400
F 0 "C6" H 1525 5500 50  0000 L CNN
F 1 "10μF" H 1525 5300 50  0000 L CNN
F 2 "Capacitor_SMD:C_1206_3216Metric" H 1538 5250 50  0001 C CNN
F 3 "~" H 1500 5400 50  0001 C CNN
	1    1500 5400
	1    0    0    -1  
$EndComp
Wire Wire Line
	1950 5100 1950 5250
$Comp
L Device:C C9
U 1 1 61DA8D73
P 1950 5400
F 0 "C9" H 1975 5500 50  0000 L CNN
F 1 "10μF" H 1975 5300 50  0000 L CNN
F 2 "Capacitor_SMD:C_1206_3216Metric" H 1988 5250 50  0001 C CNN
F 3 "~" H 1950 5400 50  0001 C CNN
	1    1950 5400
	1    0    0    -1  
$EndComp
Wire Wire Line
	2400 5100 2400 5250
$Comp
L Device:C C12
U 1 1 61DA8D7A
P 2400 5400
F 0 "C12" H 2425 5500 50  0000 L CNN
F 1 "10μF" H 2425 5300 50  0000 L CNN
F 2 "Capacitor_SMD:C_1206_3216Metric" H 2438 5250 50  0001 C CNN
F 3 "~" H 2400 5400 50  0001 C CNN
	1    2400 5400
	1    0    0    -1  
$EndComp
Wire Wire Line
	2850 5100 2850 5250
$Comp
L Device:C C15
U 1 1 61DA8D81
P 2850 5400
F 0 "C15" H 2875 5500 50  0000 L CNN
F 1 "10μF" H 2875 5300 50  0000 L CNN
F 2 "Capacitor_SMD:C_1206_3216Metric" H 2888 5250 50  0001 C CNN
F 3 "~" H 2850 5400 50  0001 C CNN
	1    2850 5400
	1    0    0    -1  
$EndComp
Wire Wire Line
	3300 5100 3300 5250
Wire Wire Line
	3300 5650 3300 5550
$Comp
L power:GNDPWR #PWR011
U 1 1 61DA8D89
P 2400 5750
F 0 "#PWR011" H 2400 5550 50  0001 C CNN
F 1 "GNDPWR" H 2400 5620 50  0000 C CNN
F 2 "" H 2400 5700 50  0001 C CNN
F 3 "" H 2400 5700 50  0001 C CNN
	1    2400 5750
	1    0    0    -1  
$EndComp
$Comp
L Device:C C18
U 1 1 61DA8D8F
P 3300 5400
F 0 "C18" H 3325 5500 50  0000 L CNN
F 1 "10μF" H 3325 5300 50  0000 L CNN
F 2 "Capacitor_SMD:C_1206_3216Metric" H 3338 5250 50  0001 C CNN
F 3 "~" H 3300 5400 50  0001 C CNN
	1    3300 5400
	1    0    0    -1  
$EndComp
Wire Wire Line
	2850 5100 3300 5100
Wire Wire Line
	2400 5100 2850 5100
Connection ~ 2850 5100
Wire Wire Line
	2400 5100 1950 5100
Connection ~ 2400 5100
Wire Wire Line
	1950 5100 1500 5100
Connection ~ 1950 5100
Connection ~ 1500 5100
Wire Wire Line
	3300 5100 4100 5100
Connection ~ 3300 5100
Wire Wire Line
	1050 5550 1050 5650
Wire Wire Line
	1050 5650 1500 5650
Connection ~ 3300 5650
Wire Wire Line
	3300 5650 3650 5650
Wire Wire Line
	2850 5550 2850 5650
Connection ~ 2850 5650
Wire Wire Line
	2850 5650 3300 5650
Wire Wire Line
	2400 5550 2400 5650
Connection ~ 2400 5650
Wire Wire Line
	2400 5650 2850 5650
Wire Wire Line
	1950 5550 1950 5650
Connection ~ 1950 5650
Wire Wire Line
	1950 5650 2400 5650
Wire Wire Line
	1500 5550 1500 5650
Connection ~ 1500 5650
Wire Wire Line
	1500 5650 1950 5650
Wire Wire Line
	2400 5750 2400 5650
$Comp
L power:GND #PWR058
U 1 1 61E05692
P 12750 7150
F 0 "#PWR058" H 12750 6900 50  0001 C CNN
F 1 "GND" H 12750 7000 50  0000 C CNN
F 2 "" H 12750 7150 50  0001 C CNN
F 3 "" H 12750 7150 50  0001 C CNN
	1    12750 7150
	1    0    0    -1  
$EndComp
Wire Wire Line
	2200 9000 2850 9000
Text Notes 1600 8750 0    157  ~ 31
Battery
$Comp
L Connector:Conn_01x02_Male J1
U 1 1 61D922AA
P 2000 9000
F 0 "J1" H 2000 9100 50  0000 C CNN
F 1 "Power" H 2000 8800 50  0000 C CNN
F 2 "Connector_New:Banana_Jack_2Pin_New_1" H 2000 9000 50  0001 C CNN
F 3 "~" H 2000 9000 50  0001 C CNN
	1    2000 9000
	1    0    0    -1  
$EndComp
$Comp
L Connector:Conn_01x02_Male J3
U 1 1 61E0D738
P 2500 1650
F 0 "J3" H 2500 1750 50  0000 C CNN
F 1 "M1" H 2500 1450 50  0000 C CNN
F 2 "Connector_New:Banana_Jack_2Pin_New_1" H 2500 1650 50  0001 C CNN
F 3 "~" H 2500 1650 50  0001 C CNN
	1    2500 1650
	1    0    0    -1  
$EndComp
$Comp
L Connector:Conn_01x02_Male J4
U 1 1 61E26A98
P 2500 3250
F 0 "J4" H 2500 3350 50  0000 C CNN
F 1 "M2" H 2500 3050 50  0000 C CNN
F 2 "Connector_New:Banana_Jack_2Pin_New_1" H 2500 3250 50  0001 C CNN
F 3 "~" H 2500 3250 50  0001 C CNN
	1    2500 3250
	1    0    0    -1  
$EndComp
$Comp
L Connector:Conn_01x02_Male J2
U 1 1 61E4C87C
P 2450 4800
F 0 "J2" H 2450 4900 50  0000 C CNN
F 1 "M3" H 2450 4600 50  0000 C CNN
F 2 "Connector_New:Banana_Jack_2Pin_New_1" H 2450 4800 50  0001 C CNN
F 3 "~" H 2450 4800 50  0001 C CNN
	1    2450 4800
	1    0    0    -1  
$EndComp
Text Notes 2050 1750 0    157  ~ 31
M1
Wire Wire Line
	2700 1650 2800 1650
Wire Wire Line
	2700 1750 2800 1750
Wire Wire Line
	2800 4800 2650 4800
Wire Wire Line
	2650 4900 2800 4900
Wire Wire Line
	2700 3250 2800 3250
Wire Wire Line
	2700 3350 2800 3350
$Comp
L components_main_board-rescue:PDRV8243HRXYQ1-DRV8243-Q1 U3
U 1 1 61D02A68
P 4100 4800
F 0 "U3" H 5100 5200 60  0000 C CNN
F 1 "DRV8243-Q1" H 5100 5100 60  0000 C CNN
F 2 "motor_driver:PDRV8243HRXYQ1" H 5100 5040 60  0001 C CNN
F 3 "" H 4100 4800 60  0000 C CNN
	1    4100 4800
	1    0    0    -1  
$EndComp
$Comp
L components_main_board-rescue:PDRV8243HRXYQ1-DRV8243-Q1 U1
U 1 1 61CEDB3F
P 4100 1650
F 0 "U1" H 5100 2050 60  0000 C CNN
F 1 "DRV8243-Q1" H 5100 1950 60  0000 C CNN
F 2 "motor_driver:PDRV8243HRXYQ1" H 5100 1890 60  0001 C CNN
F 3 "" H 4100 1650 60  0000 C CNN
	1    4100 1650
	1    0    0    -1  
$EndComp
$Comp
L components_main_board-rescue:PDRV8243HRXYQ1-DRV8243-Q1 U2
U 1 1 61CD6AD8
P 4100 3250
F 0 "U2" H 5100 3650 60  0000 C CNN
F 1 "DRV8243-Q1" H 5100 3550 60  0000 C CNN
F 2 "motor_driver:PDRV8243HRXYQ1" H 5100 3490 60  0001 C CNN
F 3 "" H 4100 3250 60  0000 C CNN
	1    4100 3250
	1    0    0    -1  
$EndComp
Wire Wire Line
	7450 5650 7750 5650
Wire Wire Line
	7750 5650 7750 5550
$Comp
L Device:R R14
U 1 1 63DD1694
P 7750 5400
F 0 "R14" V 7850 5450 50  0000 R CNN
F 1 "10K" V 7750 5450 50  0000 R CNN
F 2 "Resistor_SMD:R_0603_1608Metric" V 7680 5400 50  0001 C CNN
F 3 "~" H 7750 5400 50  0001 C CNN
	1    7750 5400
	1    0    0    -1  
$EndComp
$Comp
L Device:R R4
U 1 1 61A2FA5B
P 4650 7650
F 0 "R4" V 4730 7650 50  0000 R CNN
F 1 "10K" V 4650 7700 50  0000 R CNN
F 2 "Resistor_SMD:R_0603_1608Metric" V 4580 7650 50  0001 C CNN
F 3 "~" H 4650 7650 50  0001 C CNN
	1    4650 7650
	-1   0    0    1   
$EndComp
$Comp
L power:GNDPWR #PWR053
U 1 1 61DF179B
P 11950 8600
F 0 "#PWR053" H 11950 8400 50  0001 C CNN
F 1 "GNDPWR" H 11950 8470 50  0000 C CNN
F 2 "" H 11950 8550 50  0001 C CNN
F 3 "" H 11950 8550 50  0001 C CNN
	1    11950 8600
	1    0    0    -1  
$EndComp
Wire Wire Line
	11950 8600 11950 8550
Wire Wire Line
	11950 8550 12200 8550
Text GLabel 10000 4800 0    50   Input ~ 0
MCU_nSleep_Isol
Text GLabel 13050 1750 0    50   Input ~ 0
MCU_nSleep_Isol
Text GLabel 14650 1750 2    50   Input ~ 0
nSleep_Driv
$Comp
L Device:R R3
U 1 1 61CD6F4E
P 4100 3000
F 0 "R3" V 4180 3000 50  0000 C CNN
F 1 "10K" V 4100 3000 50  0000 C CNN
F 2 "Resistor_SMD:R_0603_1608Metric" V 4030 3000 50  0001 C CNN
F 3 "~" H 4100 3000 50  0001 C CNN
	1    4100 3000
	0    1    1    0   
$EndComp
$Comp
L power:+5V #PWR015
U 1 1 61CD6F55
P 4250 3000
F 0 "#PWR015" H 4250 2850 50  0001 C CNN
F 1 "+5V" H 4250 3140 50  0000 C CNN
F 2 "" H 4250 3000 50  0001 C CNN
F 3 "" H 4250 3000 50  0001 C CNN
	1    4250 3000
	1    0    0    -1  
$EndComp
Text GLabel 3950 1450 0    50   Input ~ 0
nSleep_Driv
Text GLabel 4100 1850 0    50   Input ~ 0
nSleep_Driv
Text GLabel 3950 3000 0    50   Input ~ 0
nSleep_Driv
Text GLabel 4100 3450 0    50   Input ~ 0
nSleep_Driv
Text GLabel 4100 5000 0    50   Input ~ 0
nSleep_Driv
$Comp
L Device:R R2
U 1 1 61C89ECC
P 4100 4600
F 0 "R2" V 4180 4600 50  0000 C CNN
F 1 "10K" V 4100 4600 50  0000 C CNN
F 2 "Resistor_SMD:R_0603_1608Metric" V 4030 4600 50  0001 C CNN
F 3 "~" H 4100 4600 50  0001 C CNN
	1    4100 4600
	0    1    1    0   
$EndComp
$Comp
L power:+5V #PWR014
U 1 1 61CD0329
P 4250 4600
F 0 "#PWR014" H 4250 4450 50  0001 C CNN
F 1 "+5V" H 4250 4740 50  0000 C CNN
F 2 "" H 4250 4600 50  0001 C CNN
F 3 "" H 4250 4600 50  0001 C CNN
	1    4250 4600
	1    0    0    -1  
$EndComp
Text GLabel 3950 4600 0    50   Input ~ 0
nSleep_Driv
NoConn ~ 3500 10750
NoConn ~ 2550 10750
NoConn ~ 1650 10750
NoConn ~ 700  10750
Text GLabel 10000 3900 0    50   Input ~ 0
Led
Text GLabel 8600 4650 1    50   Input ~ 0
Led
Wire Wire Line
	12300 1800 12300 1550
Wire Wire Line
	12300 1550 13050 1550
Wire Wire Line
	13050 1450 12150 1450
Connection ~ 12150 1450
Wire Wire Line
	12150 1300 12150 1450
Wire Wire Line
	2850 1950 4100 1950
Wire Wire Line
	2850 2500 3650 2500
Wire Wire Line
	2850 3550 4100 3550
Wire Wire Line
	2850 4100 3650 4100
$Comp
L power:GND #PWR06
U 1 1 61CF60EB
P 9200 5100
F 0 "#PWR06" H 9200 4850 50  0001 C CNN
F 1 "GND" H 9200 4950 50  0000 C CNN
F 2 "" H 9200 5100 50  0001 C CNN
F 3 "" H 9200 5100 50  0001 C CNN
	1    9200 5100
	1    0    0    -1  
$EndComp
$Comp
L Device:C C16
U 1 1 61CF60F1
P 9600 5200
F 0 "C16" H 9625 5300 50  0000 L CNN
F 1 "100nF" H 9625 5100 50  0000 L CNN
F 2 "Capacitor_SMD:C_0603_1608Metric" H 9638 5050 50  0001 C CNN
F 3 "~" H 9600 5200 50  0001 C CNN
	1    9600 5200
	-1   0    0    1   
$EndComp
$Comp
L power:+3V3 #PWR068
U 1 1 61CF60F7
P 9600 5450
F 0 "#PWR068" H 9600 5300 50  0001 C CNN
F 1 "+3V3" H 9600 5590 50  0000 C CNN
F 2 "" H 9600 5450 50  0001 C CNN
F 3 "" H 9600 5450 50  0001 C CNN
	1    9600 5450
	-1   0    0    1   
$EndComp
Wire Wire Line
	10000 5200 9800 5200
Wire Wire Line
	9800 5200 9800 5350
Wire Wire Line
	9800 5350 9600 5350
Wire Wire Line
	10000 5100 9800 5100
Wire Wire Line
	9800 5100 9800 5050
Wire Wire Line
	9800 5050 9600 5050
Wire Wire Line
	9200 5100 9200 5050
Wire Wire Line
	9200 5050 9600 5050
Connection ~ 9600 5050
Wire Wire Line
	9600 5450 9600 5350
Connection ~ 9600 5350
NoConn ~ 12600 5000
Wire Wire Line
	7150 2400 7150 2500
$Comp
L Device:R R5
U 1 1 630BBC39
P 7150 2250
F 0 "R5" V 7230 2250 50  0000 C CNN
F 1 "0" V 7150 2250 50  0000 C CNN
F 2 "Resistor_SMD:R_0603_1608Metric" V 7080 2250 50  0001 C CNN
F 3 "~" H 7150 2250 50  0001 C CNN
	1    7150 2250
	-1   0    0    1   
$EndComp
$EndSCHEMATC
